…
We read in the same data from Activity 4 below, but notice that this
code is now surrounded in parentheses.

``` r
(college_recent_grads <- read_csv("data/recent-grads.csv"))
```

    ## # A tibble: 173 x 21
    ##     rank major_code major           major_category total sample_size   men women
    ##    <dbl>      <dbl> <chr>           <chr>          <dbl>       <dbl> <dbl> <dbl>
    ##  1     1       2419 Petroleum Engi… Engineering     2339          36  2057   282
    ##  2     2       2416 Mining And Min… Engineering      756           7   679    77
    ##  3     3       2415 Metallurgical … Engineering      856           3   725   131
    ##  4     4       2417 Naval Architec… Engineering     1258          16  1123   135
    ##  5     5       2405 Chemical Engin… Engineering    32260         289 21239 11021
    ##  6     6       2418 Nuclear Engine… Engineering     2573          17  2200   373
    ##  7     7       6202 Actuarial Scie… Business        3777          51  2110  1667
    ##  8     8       5001 Astronomy And … Physical Scie…  1792          10   832   960
    ##  9     9       2414 Mechanical Eng… Engineering    91227        1029 80320 10907
    ## 10    10       2408 Electrical Eng… Engineering    81527         631 65511 16016
    ## # … with 163 more rows, and 13 more variables: sharewomen <dbl>,
    ## #   employed <dbl>, employed_fulltime <dbl>, employed_parttime <dbl>,
    ## #   employed_fulltime_yearround <dbl>, unemployed <dbl>,
    ## #   unemployment_rate <dbl>, p25th <dbl>, median <dbl>, p75th <dbl>,
    ## #   college_jobs <dbl>, non_college_jobs <dbl>, low_wage_jobs <dbl>
…
``` r
summary_earnings <- summarise(college_recent_grads, sample(median), mean(median), sd(median), min(median), max(median))

summary_earnings
```

    ## # A tibble: 173 x 5
    ##    `sample(median)` `mean(median)` `sd(median)` `min(median)` `max(median)`
    ##               <dbl>          <dbl>        <dbl>         <dbl>         <dbl>
    ##  1            36400         40151.       11470.         22000        110000
    ##  2            62000         40151.       11470.         22000        110000
    ##  3            56000         40151.       11470.         22000        110000
    ##  4            52000         40151.       11470.         22000        110000
    ##  5            38000         40151.       11470.         22000        110000
    ##  6            25000         40151.       11470.         22000        110000
    ##  7            38400         40151.       11470.         22000        110000
    ##  8            40000         40151.       11470.         22000        110000
    ##  9            53000         40151.       11470.         22000        110000
    ## 10            40000         40151.       11470.         22000        110000
    ## # … with 163 more rows
…
  ) %>%
  
  arrange(major_category) 
```

    ## `summarise()` has grouped output by 'major_category'. You can override using the `.groups` argument.

``` r
category_rankings
```

    ## # A tibble: 173 x 9
    ## # Groups:   major_category [16]
    ##    major_category      total_s sharewomen_m unemployment_ra… median_m total_rank
    ##    <chr>                 <dbl>        <dbl>            <dbl>    <dbl>      <dbl>
    ##  1 Agriculture & Natu…      NA           NA           0.0553    35000         10
    ##  2 Agriculture & Natu…      NA           NA           0.0553    35000          8
    ##  3 Agriculture & Natu…      NA           NA           0.0553    35000          6
    ##  4 Agriculture & Natu…      NA           NA           0.0553    35000          3
    ##  5 Agriculture & Natu…      NA           NA           0.0553    35000          7
    ##  6 Agriculture & Natu…      NA           NA           0.0553    35000          4
    ##  7 Agriculture & Natu…      NA           NA           0.0553    35000          1
    ##  8 Agriculture & Natu…      NA           NA           0.0553    35000          5
    ##  9 Agriculture & Natu…      NA           NA           0.0553    35000          9
    ## 10 Agriculture & Natu…      NA           NA           0.0553    35000          2
    ## # … with 163 more rows, and 3 more variables: sharewomen_rank <dbl>,
    ## #   unemployment_rate_rank <dbl>, median_rank <dbl>
…
